[gd_scene load_steps=3 format=2]

[ext_resource path="res://src/Player.tscn" type="PackedScene" id=1]
[ext_resource path="res://src/Terminal.tscn" type="PackedScene" id=2]

[node name="design" type="Node2D"]

[node name="ColorRect" type="ColorRect" parent="."]
margin_left = 8.0
margin_top = 8.0
margin_right = 1014.0
margin_bottom = 589.0
__meta__ = {
"_edit_use_anchors_": false
}

[node name="Player" parent="." instance=ExtResource( 1 )]
position = Vector2( 210.787, 150.141 )

[node name="Botchat" type="Node2D" parent="."]

[node name="background" type="ColorRect" parent="Botchat"]
margin_left = 736.0
margin_top = 13.0
margin_right = 1004.0
margin_bottom = 577.0
color = Color( 0.254902, 0.254902, 0.254902, 1 )
__meta__ = {
"_edit_use_anchors_": false
}

[node name="Output window" type="ColorRect" parent="Botchat/background"]
anchor_left = 0.5
anchor_right = 0.5
margin_left = -120.0
margin_top = 9.0
margin_right = 120.0
margin_bottom = 433.0
color = Color( 0, 0, 0, 1 )
__meta__ = {
"_edit_use_anchors_": false
}

[node name="Label" type="Label" parent="Botchat/background/Output window"]
margin_left = 13.5443
margin_top = 13.2691
margin_right = 234.544
margin_bottom = 44.2691
custom_colors/font_color = Color( 0.0392157, 0.784314, 0.0705882, 1 )
text = "This is a text
> something entered by the player

[Reply from the stupid BOT]"
__meta__ = {
"_edit_use_anchors_": false
}

[node name="Input Window" type="ColorRect" parent="Botchat/background"]
anchor_left = 0.5
anchor_top = 1.0
anchor_right = 0.5
anchor_bottom = 1.0
margin_left = -120.0
margin_top = -116.0
margin_right = 118.0
margin_bottom = -12.0
color = Color( 0, 0.0117647, 0.14902, 1 )
__meta__ = {
"_edit_use_anchors_": false
}

[node name="Label" type="Label" parent="Botchat/background/Input Window"]
margin_left = 5.2417
margin_top = 7.0
margin_right = 157.242
margin_bottom = 21.0
text = " > Say something clever"
__meta__ = {
"_edit_use_anchors_": false
}

[node name="Terminal" parent="." instance=ExtResource( 2 )]
position = Vector2( 382.946, 76.5749 )
