[gd_scene load_steps=10 format=2]

[ext_resource path="res://src/ui/BotUI.tscn" type="PackedScene" id=1]
[ext_resource path="res://src/InputHandler.tscn" type="PackedScene" id=2]
[ext_resource path="res://src/screens/Main.gd" type="Script" id=3]
[ext_resource path="res://src/Terminal.tscn" type="PackedScene" id=4]
[ext_resource path="res://src/Player.tscn" type="PackedScene" id=5]
[ext_resource path="res://src/Door.tscn" type="PackedScene" id=6]
[ext_resource path="res://assets/ship.png" type="Texture" id=7]
[ext_resource path="res://src/ui/fade_to_black.tscn" type="PackedScene" id=8]

[sub_resource type="RectangleShape2D" id=1]
extents = Vector2( 84.2265, 722.006 )

[node name="Main" type="Node2D"]
script = ExtResource( 3 )

[node name="ship" type="TextureRect" parent="."]
anchor_left = 0.5
anchor_top = 0.5
anchor_right = 0.5
anchor_bottom = 0.5
margin_left = -1751.44
margin_top = -1240.0
margin_right = 1756.56
margin_bottom = 1240.0
texture = ExtResource( 7 )
__meta__ = {
"_edit_use_anchors_": false
}

[node name="fade_to_black" type="CanvasLayer" parent="."]

[node name="fade_to_black" parent="fade_to_black" instance=ExtResource( 8 )]

[node name="CanvasLayer" type="CanvasLayer" parent="."]

[node name="BotUI" parent="CanvasLayer" instance=ExtResource( 1 )]
message = "Welcome on your VLAI Bot 2.0 interface

Type command to execute or help for more information. Some command must be run in fron of an appropriate terminal...

"

[node name="doors" type="Node" parent="."]

[node name="bedroom" parent="doors" instance=ExtResource( 6 )]
position = Vector2( 1025.12, 550.162 )
door_name = "bedroom"

[node name="kitchen" parent="doors" instance=ExtResource( 6 )]
position = Vector2( 421.145, -372.749 )
door_name = "kitchen_door"

[node name="cockpit" parent="doors" instance=ExtResource( 6 )]
position = Vector2( -286.061, -1.42764 )
rotation = 1.5708
scale = Vector2( 1.5, 1.3 )
door_name = "cockpit_door"

[node name="pod bay" parent="doors" instance=ExtResource( 6 )]
position = Vector2( 1268.04, 19.2325 )
rotation = 1.5708
scale = Vector2( 2.2, 1.5 )
door_name = "pod_bay_door"

[node name="walls" type="Node" parent="."]

[node name="main wall" type="StaticBody2D" parent="walls"]
collision_layer = 2

[node name="main wall" type="CollisionPolygon2D" parent="walls/main wall"]
polygon = PoolVector2Array( -307.867, 355.906, -1058.63, 369.808, -1343.64, 184.436, -1350.59, -149.235, -1037.77, -394.854, -310.184, -401.805, -298.598, -1110.86, 1610.74, -1108.54, 1620.01, -594.129, 1575.98, -589.495, 1566.71, -1066.83, 1279.39, -1062.2, 1288.66, -123.746, 1244.63, -126.063, 1244.63, -360.096, 491.553, -355.462, 482.284, -401.805, 1242.31, -411.074, 1233.04, -1066.83, 289.96, -1069.15, 294.594, -1001.95, -127.128, -1001.95, -141.031, -487.54, 303.863, -489.857, 315.449, -408.756, 361.792, -399.488, 359.475, -355.462, -261.523, -355.462, -259.206, -95.9401, -314.818, -98.2572, -307.867, -297.533, -935.817, -272.044, -926.548, -12.5223, -854.716, -65.817, -727.272, -65.817, -729.589, 70.8954, -854.716, 77.8468, -896.425, 36.1379, -926.548, 36.1379, -928.865, 240.048, -317.135, 244.682, -305.55, 84.7983, -266.158, 87.1155, -266.158, 314.197, 382.647, 304.928, 384.964, 344.32, -261.523, 353.589, -263.841, 525.058, -34.442, 532.01, -32.1249, 576.036, -260.268, 579.239, -269.502, 1019.38, -1.72339, 1031.69, 1.35474, 742.368, 247.588, 748.524, 250.666, 573.083, 69.0686, 576.161, 62.9128, 533.07, 469.197, 526.914, 466.119, 570.005, 290.678, 576.161, 287.6, 1022.46, 438.418, 1025.54, 447.652, 736.212, 730.82, 733.135, 743.131, 573.083, 626.171, 566.927, 620.015, 529.992, 949.352, 526.914, 949.352, 563.849, 789.3, 563.849, 789.3, 1022.46, 977.053, 1031.69, 967.819, 742.368, 1263.3, 748.524, 1266.38, 566.927, 1103.25, 563.849, 1100.17, 523.836, 1257.14, 523.836, 1257.14, 317.616, 496.898, 348.396, 499.976, 302.227, 1257.14, 283.759, 1247.91, 126.786, 1297.16, 123.708, 1309.47, 1040.93, 1595.71, 1034.77, 1583.4, 610.018, 1641.88, 606.94, 1651.12, 1074.78, -306.437, 1077.86 )

[node name="pod bay 1" type="StaticBody2D" parent="walls"]
collision_layer = 2

[node name="CollisionPolygon2D" type="CollisionPolygon2D" parent="walls/pod bay 1"]
polygon = PoolVector2Array( 1578.88, 89.4485, 1630.27, 91.7843, 1637.27, 460.844, 1585.89, 458.508 )

[node name="pod bay 2" type="StaticBody2D" parent="walls"]
collision_layer = 2

[node name="CollisionPolygon2D" type="CollisionPolygon2D" parent="walls/pod bay 2"]
polygon = PoolVector2Array( 1625.6, -60.0439, 1576.54, -60.0439, 1567.2, -466.476, 1613.92, -466.476 )

[node name="kitchen table" type="StaticBody2D" parent="walls"]
collision_layer = 2

[node name="CollisionPolygon2D" type="CollisionPolygon2D" parent="walls/kitchen table"]
polygon = PoolVector2Array( 826.745, -529.544, 791.708, -613.633, 780.029, -777.14, 810.395, -956.998, 873.462, -994.372, 957.551, -982.692, 978.574, -814.513, 969.231, -590.275, 945.872, -545.894, 896.82, -522.536, 850.104, -515.529 )

[node name="kitchen oven" type="StaticBody2D" parent="walls"]
collision_layer = 2

[node name="CollisionPolygon2D" type="CollisionPolygon2D" parent="walls/kitchen oven"]
polygon = PoolVector2Array( -11.8135, -651.006, -11.8135, -819.185, 247.462, -816.849, 249.798, -653.342 )

[node name="terminals" type="Node" parent="."]

[node name="bedroom" parent="terminals" instance=ExtResource( 4 )]
position = Vector2( 1202.44, 595.605 )
location = "bedroom"

[node name="chef room" parent="terminals" instance=ExtResource( 4 )]
position = Vector2( 675.349, 604.648 )
location = "chef_room"

[node name="pilot room" parent="terminals" instance=ExtResource( 4 )]
position = Vector2( 166.348, 605.94 )
location = "pilot_room"

[node name="pod_bay_door" parent="terminals" instance=ExtResource( 4 )]
position = Vector2( 1203.81, 189.793 )
rotation = 1.5708
location = "pod_bay_door"

[node name="kitchen_door" parent="terminals" instance=ExtResource( 4 )]
position = Vector2( 549.59, -323.132 )
location = "kitchen_door"

[node name="cockpit_door" parent="terminals" instance=ExtResource( 4 )]
position = Vector2( -220.765, -218.611 )
rotation = -1.5708
location = "cockpit_door"

[node name="cockpit" parent="terminals" instance=ExtResource( 4 )]
position = Vector2( -403.922, -263.163 )
location = "cockpit"

[node name="kitchen" parent="terminals" instance=ExtResource( 4 )]
position = Vector2( 501.962, -1032.92 )
location = "kitchen"

[node name="Player" parent="." instance=ExtResource( 5 )]
position = Vector2( 1027.25, 677.58 )
scale = Vector2( 1.6, 1.6 )
z_index = 100

[node name="exit" type="Area2D" parent="."]
collision_layer = 0

[node name="CollisionShape2D" type="CollisionShape2D" parent="exit"]
position = Vector2( 1670.12, 59.4584 )
shape = SubResource( 1 )

[node name="InputHandler" parent="." instance=ExtResource( 2 )]
debug = false
[connection signal="user_text_entered" from="CanvasLayer/BotUI" to="InputHandler" method="_on_BotUI_user_text_entered"]
[connection signal="body_entered" from="exit" to="." method="_on_exit_body_entered"]
